<?xml version="1.0" encoding="utf-8"?>
<!-- Generator: Adobe Illustrator 23.0.0, SVG Export Plug-In . SVG Version: 6.00 Build 0)  -->
<svg version="1.1" id="Слой_1" xmlns="http://www.w3.org/2000/svg" xmlns:xlink="http://www.w3.org/1999/xlink" x="0px" y="0px"
	 viewBox="0 0 35 35" style="enable-background:new 0 0 35 35;" xml:space="preserve">
<style type="text/css">
	.st0{fill:#FFFFFF;}
	.st1{fill:#F5891F;}
</style>
<g>
	<rect class="st0" width="35" height="35"/>
</g>
<g>
	<path class="st1" d="M17.1,17.7c0.3-0.4,0.7-0.9,1.2-1.4c0.4-0.4,0.7-0.7,0.9-0.9c0.2-0.2,0.3-0.5,0.3-0.8c0-0.4-0.2-0.8-0.5-1.1
		c-0.4-0.3-0.8-0.4-1.4-0.4c-0.6,0-1.1,0.1-1.5,0.4c-0.4,0.2-0.8,0.6-1.1,1l-2.2-1.3c0.5-0.8,1.2-1.4,2-1.8c0.9-0.4,1.9-0.6,3.1-0.6
		c1.4,0,2.5,0.3,3.3,0.9c0.8,0.6,1.3,1.4,1.3,2.4c0,0.5-0.1,0.9-0.2,1.3s-0.4,0.7-0.6,0.9c-0.2,0.3-0.5,0.6-0.9,0.9
		c-0.4,0.4-0.8,0.7-1,1c-0.2,0.3-0.3,0.6-0.3,1h-2.7C16.7,18.6,16.8,18.1,17.1,17.7z M16.8,23.3c-0.3-0.3-0.5-0.7-0.5-1.2
		c0-0.5,0.2-0.8,0.5-1.1c0.3-0.3,0.7-0.5,1.2-0.5c0.5,0,0.9,0.2,1.2,0.5c0.3,0.3,0.5,0.7,0.5,1.1c0,0.5-0.2,0.8-0.5,1.2
		c-0.3,0.3-0.7,0.5-1.2,0.5C17.5,23.7,17.1,23.6,16.8,23.3z"/>
</g>
</svg>
