<?xml version="1.0" encoding="utf-8"?>
<!-- Generator: Adobe Illustrator 23.0.0, SVG Export Plug-In . SVG Version: 6.00 Build 0)  -->
<svg version="1.1" id="Capa_1" xmlns="http://www.w3.org/2000/svg" xmlns:xlink="http://www.w3.org/1999/xlink" x="0px" y="0px"
	 viewBox="0 0 44.2 44.2" style="enable-background:new 0 0 44.2 44.2;" xml:space="preserve">
<style type="text/css">
	.st0{fill:#F5891F;}
</style>
<g>
	<g>
		<path class="st0" d="M0,22.1C0,9.9,9.9,0,22.1,0s22.1,9.9,22.1,22.1s-9.9,22.1-22.1,22.1S0,34.3,0,22.1z M42.7,22.1
			c0-11.4-9.2-20.6-20.6-20.6c-11.4,0-20.6,9.3-20.6,20.6s9.3,20.6,20.6,20.6C33.5,42.7,42.7,33.5,42.7,22.1z"/>
		<path class="st0" d="M14.4,24.7c0-0.2,0.1-0.4,0.2-0.5l7.3-7.3c0.3-0.3,0.8-0.3,1.1,0l7.3,7.3c0.3,0.3,0.3,0.8,0,1.1
			c-0.3,0.3-0.8,0.3-1.1,0l-6.8-6.8l-6.8,6.8c-0.3,0.3-0.8,0.3-1.1,0C14.4,25.1,14.4,24.9,14.4,24.7z"/>
	</g>
</g>
</svg>
